%YAML 1.1
%TAG !u! tag:unity3d.com,2011:
--- !u!21 &2100000
Material:
  serializedVersion: 8
  m_ObjectHideFlags: 0
  m_CorrespondingSourceObject: {fileID: 0}
  m_PrefabInstance: {fileID: 0}
  m_PrefabAsset: {fileID: 0}
  m_Name: ScoreMaterial Variant
  m_Shader: {fileID: 4800000, guid: 933532a4fcc9baf4fa0491de14d08ed7, type: 3}
  m_Parent: {fileID: 2100000, guid: b3a954a0133db7342bef55a2f1f853ad, type: 2}
  m_ModifiedSerializedProperties: 0
  m_ValidKeywords:
  - _ALPHAPREMULTIPLY_ON
  - _SURFACE_TYPE_TRANSPARENT
  m_InvalidKeywords: []
  m_LightmapFlags: 4
  m_EnableInstancingVariants: 0
  m_DoubleSidedGI: 0
  m_CustomRenderQueue: -1
  stringTagMap:
    RenderType: Transparent
  disabledShaderPasses:
  - DepthOnly
  - SHADOWCASTER
  m_LockedProperties: 
  m_SavedProperties:
    serializedVersion: 3
    m_TexEnvs: []
    m_Ints: []
    m_Floats: []
    m_Colors:
    - _BaseColor: {r: 0, g: 1, b: 0.25383496, a: 0.2}
    - _Color: {r: 0, g: 1, b: 0.25383493, a: 0.2}
  m_BuildTextureStacks: []
--- !u!114 &5617240319806286874
MonoBehaviour:
  m_ObjectHideFlags: 11
  m_CorrespondingSourceObject: {fileID: 0}
  m_PrefabInstance: {fileID: 0}
  m_PrefabAsset: {fileID: 0}
  m_GameObject: {fileID: 0}
  m_Enabled: 1
  m_EditorHideFlags: 0
  m_Script: {fileID: 11500000, guid: d0353a89b1f911e48b9e16bdc9f2e058, type: 3}
  m_Name: 
  m_EditorClassIdentifier: 
  version: 7
